E:\I\Study\4 course\Винокурова\tea_shop\shop1\src\main\java\shop\controllers\ContactsController.java
E:\I\Study\4 course\Винокурова\tea_shop\shop1\src\main\java\shop\model\repositories\ProductsRepository.java
E:\I\Study\4 course\Винокурова\tea_shop\shop1\src\main\java\shop\controllers\ProductController.java
E:\I\Study\4 course\Винокурова\tea_shop\shop1\src\main\java\shop\controllers\ShopController.java
E:\I\Study\4 course\Винокурова\tea_shop\shop1\src\main\java\shop\controllers\AdminController.java
E:\I\Study\4 course\Винокурова\tea_shop\shop1\src\main\java\shop\model\repositories\CategoriesRepository.java
E:\I\Study\4 course\Винокурова\tea_shop\shop1\src\main\java\shop\controllers\CartController.java
E:\I\Study\4 course\Винокурова\tea_shop\shop1\src\main\java\shop\model\entities\Product.java
E:\I\Study\4 course\Винокурова\tea_shop\shop1\src\main\java\shop\controllers\IndexController.java
E:\I\Study\4 course\Винокурова\tea_shop\shop1\src\main\java\shop\model\entities\Category.java
E:\I\Study\4 course\Винокурова\tea_shop\shop1\src\main\java\shop\Program.java
E:\I\Study\4 course\Винокурова\tea_shop\shop1\src\main\java\shop\controllers\CatalogController.java
E:\I\Study\4 course\Винокурова\tea_shop\shop1\src\main\java\shop\controllers\dto\ProductDto.java
E:\I\Study\4 course\Винокурова\tea_shop\shop1\src\main\java\shop\controllers\AboutController.java
E:\I\Study\4 course\Винокурова\tea_shop\shop1\src\main\java\shop\controllers\dto\CategoryDto.java
